{"uid":"1cd02a9c7660c072","name":"COMM-01: unable to find costumer","fullName":"Customer search.COMM-01: unable to find costumer","historyId":"ee7710fa683d38966c81e871e5aa9571","time":{"start":1666793288492,"stop":1666793303259,"duration":14767},"description":"","descriptionHtml":"","status":"passed","flaky":false,"newFailed":false,"newBroken":false,"newPassed":false,"retriesCount":0,"retriesStatusChange":false,"beforeStages":[],"testStage":{"status":"passed","steps":[{"name":"Given I get a list of users from reqres.in","time":{"start":1666793288495,"stop":1666793288897,"duration":402},"status":"passed","steps":[{"name":"Getting the payload data for endpoint: users","time":{"start":1666793288501,"stop":1666793288501,"duration":0},"status":"passed","steps":[],"attachments":[],"parameters":[],"stepsCount":0,"attachmentsCount":0,"shouldDisplayMessage":false,"hasContent":false},{"name":"Making a GET to /api/users","time":{"start":1666793288502,"stop":1666793288502,"duration":0},"status":"passed","steps":[],"attachments":[],"parameters":[],"stepsCount":0,"attachmentsCount":0,"shouldDisplayMessage":false,"hasContent":false},{"name":"API response received, data: {\"page\":1,\"per_page\":6,\"total\":12,\"total_pages\":2,\"data\":[{\"id\":1,\"email\":\"george.bluth@reqres.in\",\"first_name\":\"George\",\"last_name\":\"Bluth\",\"avatar\":\"https://reqres.in/img/faces/1-image.jpg\"},{\"id\":2,\"email\":\"janet.weaver@reqres.in\",\"first_name\":\"Janet\",\"last_name\":\"Weaver\",\"avatar\":\"https://reqres.in/img/faces/2-image.jpg\"},{\"id\":3,\"email\":\"emma.wong@reqres.in\",\"first_name\":\"Emma\",\"last_name\":\"Wong\",\"avatar\":\"https://reqres.in/img/faces/3-image.jpg\"},{\"id\":4,\"email\":\"eve.holt@reqres.in\",\"first_name\":\"Eve\",\"last_name\":\"Holt\",\"avatar\":\"https://reqres.in/img/faces/4-image.jpg\"},{\"id\":5,\"email\":\"charles.morris@reqres.in\",\"first_name\":\"Charles\",\"last_name\":\"Morris\",\"avatar\":\"https://reqres.in/img/faces/5-image.jpg\"},{\"id\":6,\"email\":\"tracey.ramos@reqres.in\",\"first_name\":\"Tracey\",\"last_name\":\"Ramos\",\"avatar\":\"https://reqres.in/img/faces/6-image.jpg\"}],\"support\":{\"url\":\"https://reqres.in/#support-heading\",\"text\":\"To keep ReqRes free, contributions towards server costs are appreciated!\"}}","time":{"start":1666793288894,"stop":1666793288894,"duration":0},"status":"passed","steps":[],"attachments":[],"parameters":[],"stepsCount":0,"attachmentsCount":0,"shouldDisplayMessage":false,"hasContent":false},{"name":"API response from /api/users stored in json file","time":{"start":1666793288895,"stop":1666793288895,"duration":0},"status":"passed","steps":[],"attachments":[],"parameters":[],"stepsCount":0,"attachmentsCount":0,"shouldDisplayMessage":false,"hasContent":false}],"attachments":[],"parameters":[],"stepsCount":4,"attachmentsCount":0,"shouldDisplayMessage":false,"hasContent":true},{"name":"And nopcommerceUrl page is opened and loaded","time":{"start":1666793288897,"stop":1666793289942,"duration":1045},"status":"passed","steps":[],"attachments":[],"parameters":[],"stepsCount":0,"attachmentsCount":0,"shouldDisplayMessage":false,"hasContent":false},{"name":"When I login as ADMIN to nopcommerce site","time":{"start":1666793289942,"stop":1666793293035,"duration":3093},"status":"passed","steps":[{"name":"Logging in to nop commerce app","time":{"start":1666793289943,"stop":1666793289943,"duration":0},"status":"passed","steps":[],"attachments":[],"parameters":[],"stepsCount":0,"attachmentsCount":0,"shouldDisplayMessage":false,"hasContent":false},{"name":"Logging in to nop commerce app","time":{"start":1666793289943,"stop":1666793289943,"duration":0},"status":"passed","steps":[],"attachments":[],"parameters":[],"stepsCount":0,"attachmentsCount":0,"shouldDisplayMessage":false,"hasContent":false},{"name":"Login to: https://admin-demo.nopcommerce.com/login with admin@yourstore.com","time":{"start":1666793289944,"stop":1666793289944,"duration":0},"status":"passed","steps":[],"attachments":[],"parameters":[],"stepsCount":0,"attachmentsCount":0,"shouldDisplayMessage":false,"hasContent":false}],"attachments":[],"parameters":[],"stepsCount":3,"attachmentsCount":0,"shouldDisplayMessage":false,"hasContent":true},{"name":"And I filter users in customer list","time":{"start":1666793293035,"stop":1666793295764,"duration":2729},"status":"passed","steps":[{"name":"Filtering using parameters received","time":{"start":1666793293135,"stop":1666793293135,"duration":0},"status":"passed","steps":[],"attachments":[],"parameters":[],"stepsCount":0,"attachmentsCount":0,"shouldDisplayMessage":false,"hasContent":false}],"attachments":[],"parameters":[],"stepsCount":1,"attachmentsCount":0,"shouldDisplayMessage":false,"hasContent":true},{"name":"Then I expect the users are not in the customer list","time":{"start":1666793295764,"stop":1666793303220,"duration":7456},"status":"passed","steps":[{"name":"Searching user: George Bluth","time":{"start":1666793295765,"stop":1666793295765,"duration":0},"status":"passed","steps":[],"attachments":[],"parameters":[],"stepsCount":0,"attachmentsCount":0,"shouldDisplayMessage":false,"hasContent":false},{"name":"Searching user: Janet Weaver","time":{"start":1666793297107,"stop":1666793297107,"duration":0},"status":"passed","steps":[],"attachments":[],"parameters":[],"stepsCount":0,"attachmentsCount":0,"shouldDisplayMessage":false,"hasContent":false},{"name":"Searching user: Emma Wong","time":{"start":1666793298320,"stop":1666793298320,"duration":0},"status":"passed","steps":[],"attachments":[],"parameters":[],"stepsCount":0,"attachmentsCount":0,"shouldDisplayMessage":false,"hasContent":false},{"name":"Searching user: Eve Holt","time":{"start":1666793299541,"stop":1666793299541,"duration":0},"status":"passed","steps":[],"attachments":[],"parameters":[],"stepsCount":0,"attachmentsCount":0,"shouldDisplayMessage":false,"hasContent":false},{"name":"Searching user: Charles Morris","time":{"start":1666793300764,"stop":1666793300764,"duration":0},"status":"passed","steps":[],"attachments":[],"parameters":[],"stepsCount":0,"attachmentsCount":0,"shouldDisplayMessage":false,"hasContent":false},{"name":"Searching user: Tracey Ramos","time":{"start":1666793301974,"stop":1666793301974,"duration":0},"status":"passed","steps":[],"attachments":[],"parameters":[],"stepsCount":0,"attachmentsCount":0,"shouldDisplayMessage":false,"hasContent":false}],"attachments":[],"parameters":[],"stepsCount":6,"attachmentsCount":0,"shouldDisplayMessage":false,"hasContent":true}],"attachments":[],"parameters":[],"stepsCount":19,"attachmentsCount":0,"shouldDisplayMessage":false,"hasContent":true},"afterStages":[],"labels":[{"name":"framework","value":"wdio"},{"name":"language","value":"javascript"},{"name":"thread","value":"0-2"},{"name":"suite","value":"Customer search"},{"name":"testClass","value":"Customer search"},{"name":"testMethod","value":"COMM-01: unable to find costumer"},{"name":"package","value":"Customer search"},{"name":"resultFormat","value":"allure1"}],"parameters":[{"name":"browser","value":"chrome-106.0.5249.119"}],"links":[],"hidden":false,"retry":false,"extra":{"severity":"normal","retries":[],"categories":[],"history":{"statistic":{"failed":0,"broken":0,"skipped":0,"passed":2,"unknown":0,"total":2},"items":[{"uid":"4841296054e37a9e","reportUrl":"https://Bluemary04.github.io/wdioframework/2//#testresult/4841296054e37a9e","status":"passed","time":{"start":1666787650490,"stop":1666787664019,"duration":13529}}]},"tags":[]},"source":"1cd02a9c7660c072.json","parameterValues":["chrome-106.0.5249.119"]}