{"uid":"d3965f79581b97a6","name":"COMM-01: unable to find costumer","fullName":"Customer search.COMM-01: unable to find costumer","historyId":"ee7710fa683d38966c81e871e5aa9571","time":{"start":1666799949567,"stop":1666799962962,"duration":13395},"description":"","descriptionHtml":"","status":"passed","flaky":false,"newFailed":false,"newBroken":false,"newPassed":false,"retriesCount":0,"retriesStatusChange":false,"beforeStages":[],"testStage":{"status":"passed","steps":[{"name":"Given I get a list of users from reqres.in","time":{"start":1666799949569,"stop":1666799949923,"duration":354},"status":"passed","steps":[{"name":"Getting the payload data for endpoint: users","time":{"start":1666799949573,"stop":1666799949573,"duration":0},"status":"passed","steps":[],"attachments":[],"parameters":[],"stepsCount":0,"attachmentsCount":0,"shouldDisplayMessage":false,"hasContent":false},{"name":"Making a GET to /api/users","time":{"start":1666799949573,"stop":1666799949573,"duration":0},"status":"passed","steps":[],"attachments":[],"parameters":[],"stepsCount":0,"attachmentsCount":0,"shouldDisplayMessage":false,"hasContent":false},{"name":"API response received, data: {\"page\":1,\"per_page\":6,\"total\":12,\"total_pages\":2,\"data\":[{\"id\":1,\"email\":\"george.bluth@reqres.in\",\"first_name\":\"George\",\"last_name\":\"Bluth\",\"avatar\":\"https://reqres.in/img/faces/1-image.jpg\"},{\"id\":2,\"email\":\"janet.weaver@reqres.in\",\"first_name\":\"Janet\",\"last_name\":\"Weaver\",\"avatar\":\"https://reqres.in/img/faces/2-image.jpg\"},{\"id\":3,\"email\":\"emma.wong@reqres.in\",\"first_name\":\"Emma\",\"last_name\":\"Wong\",\"avatar\":\"https://reqres.in/img/faces/3-image.jpg\"},{\"id\":4,\"email\":\"eve.holt@reqres.in\",\"first_name\":\"Eve\",\"last_name\":\"Holt\",\"avatar\":\"https://reqres.in/img/faces/4-image.jpg\"},{\"id\":5,\"email\":\"charles.morris@reqres.in\",\"first_name\":\"Charles\",\"last_name\":\"Morris\",\"avatar\":\"https://reqres.in/img/faces/5-image.jpg\"},{\"id\":6,\"email\":\"tracey.ramos@reqres.in\",\"first_name\":\"Tracey\",\"last_name\":\"Ramos\",\"avatar\":\"https://reqres.in/img/faces/6-image.jpg\"}],\"support\":{\"url\":\"https://reqres.in/#support-heading\",\"text\":\"To keep ReqRes free, contributions towards server costs are appreciated!\"}}","time":{"start":1666799949922,"stop":1666799949922,"duration":0},"status":"passed","steps":[],"attachments":[],"parameters":[],"stepsCount":0,"attachmentsCount":0,"shouldDisplayMessage":false,"hasContent":false},{"name":"API response from /api/users stored in json file","time":{"start":1666799949922,"stop":1666799949922,"duration":0},"status":"passed","steps":[],"attachments":[],"parameters":[],"stepsCount":0,"attachmentsCount":0,"shouldDisplayMessage":false,"hasContent":false}],"attachments":[],"parameters":[],"stepsCount":4,"attachmentsCount":0,"shouldDisplayMessage":false,"hasContent":true},{"name":"And nopcommerceUrl page is opened and loaded","time":{"start":1666799949923,"stop":1666799950886,"duration":963},"status":"passed","steps":[],"attachments":[],"parameters":[],"stepsCount":0,"attachmentsCount":0,"shouldDisplayMessage":false,"hasContent":false},{"name":"When I login as ADMIN to nopcommerce site","time":{"start":1666799950886,"stop":1666799952913,"duration":2027},"status":"passed","steps":[{"name":"Logging in to nop commerce app","time":{"start":1666799950887,"stop":1666799950887,"duration":0},"status":"passed","steps":[],"attachments":[],"parameters":[],"stepsCount":0,"attachmentsCount":0,"shouldDisplayMessage":false,"hasContent":false},{"name":"Logging in to nop commerce app","time":{"start":1666799950887,"stop":1666799950887,"duration":0},"status":"passed","steps":[],"attachments":[],"parameters":[],"stepsCount":0,"attachmentsCount":0,"shouldDisplayMessage":false,"hasContent":false},{"name":"Login to: https://admin-demo.nopcommerce.com/login with admin@yourstore.com","time":{"start":1666799950887,"stop":1666799950887,"duration":0},"status":"passed","steps":[],"attachments":[],"parameters":[],"stepsCount":0,"attachmentsCount":0,"shouldDisplayMessage":false,"hasContent":false}],"attachments":[],"parameters":[],"stepsCount":3,"attachmentsCount":0,"shouldDisplayMessage":false,"hasContent":true},{"name":"And I filter users in customer list","time":{"start":1666799952913,"stop":1666799955698,"duration":2785},"status":"passed","steps":[{"name":"Filtering using parameters received","time":{"start":1666799952983,"stop":1666799952983,"duration":0},"status":"passed","steps":[],"attachments":[],"parameters":[],"stepsCount":0,"attachmentsCount":0,"shouldDisplayMessage":false,"hasContent":false}],"attachments":[],"parameters":[],"stepsCount":1,"attachmentsCount":0,"shouldDisplayMessage":false,"hasContent":true},{"name":"Then I expect the users are not in the customer list","time":{"start":1666799955698,"stop":1666799962945,"duration":7247},"status":"passed","steps":[{"name":"Searching user: George Bluth","time":{"start":1666799955699,"stop":1666799955699,"duration":0},"status":"passed","steps":[],"attachments":[],"parameters":[],"stepsCount":0,"attachmentsCount":0,"shouldDisplayMessage":false,"hasContent":false},{"name":"Searching user: Janet Weaver","time":{"start":1666799957034,"stop":1666799957034,"duration":0},"status":"passed","steps":[],"attachments":[],"parameters":[],"stepsCount":0,"attachmentsCount":0,"shouldDisplayMessage":false,"hasContent":false},{"name":"Searching user: Emma Wong","time":{"start":1666799958219,"stop":1666799958219,"duration":0},"status":"passed","steps":[],"attachments":[],"parameters":[],"stepsCount":0,"attachmentsCount":0,"shouldDisplayMessage":false,"hasContent":false},{"name":"Searching user: Eve Holt","time":{"start":1666799959388,"stop":1666799959388,"duration":0},"status":"passed","steps":[],"attachments":[],"parameters":[],"stepsCount":0,"attachmentsCount":0,"shouldDisplayMessage":false,"hasContent":false},{"name":"Searching user: Charles Morris","time":{"start":1666799960576,"stop":1666799960576,"duration":0},"status":"passed","steps":[],"attachments":[],"parameters":[],"stepsCount":0,"attachmentsCount":0,"shouldDisplayMessage":false,"hasContent":false},{"name":"Searching user: Tracey Ramos","time":{"start":1666799961759,"stop":1666799961759,"duration":0},"status":"passed","steps":[],"attachments":[],"parameters":[],"stepsCount":0,"attachmentsCount":0,"shouldDisplayMessage":false,"hasContent":false}],"attachments":[],"parameters":[],"stepsCount":6,"attachmentsCount":0,"shouldDisplayMessage":false,"hasContent":true}],"attachments":[],"parameters":[],"stepsCount":19,"attachmentsCount":0,"shouldDisplayMessage":false,"hasContent":true},"afterStages":[],"labels":[{"name":"framework","value":"wdio"},{"name":"language","value":"javascript"},{"name":"thread","value":"0-2"},{"name":"suite","value":"Customer search"},{"name":"testClass","value":"Customer search"},{"name":"testMethod","value":"COMM-01: unable to find costumer"},{"name":"package","value":"Customer search"},{"name":"resultFormat","value":"allure1"}],"parameters":[{"name":"browser","value":"chrome-106.0.5249.119"}],"links":[],"hidden":false,"retry":false,"extra":{"severity":"normal","retries":[],"categories":[],"history":{"statistic":{"failed":0,"broken":0,"skipped":0,"passed":3,"unknown":0,"total":3},"items":[{"uid":"1cd02a9c7660c072","reportUrl":"https://Bluemary04.github.io/wdioframework/3//#testresult/1cd02a9c7660c072","status":"passed","time":{"start":1666793288492,"stop":1666793303259,"duration":14767}},{"uid":"4841296054e37a9e","reportUrl":"https://Bluemary04.github.io/wdioframework/2//#testresult/4841296054e37a9e","status":"passed","time":{"start":1666787650490,"stop":1666787664019,"duration":13529}}]},"tags":[]},"source":"d3965f79581b97a6.json","parameterValues":["chrome-106.0.5249.119"]}